"ID","Event Driver"
"CharN2","Character NGrams n : 2"
"CharN3","Character NGrams n : 3"
"CharN4","Character NGrams n : 4"
"CharN5","Character NGrams n : 5"
"Chars","Characters"
"CPOS","Coarse POS Tagger"
"FirstWS","First Word In Sentence"
"NewL","New Lines"
"POSN2","POS NGrams n : 2"
"POSN3","POS NGrams n : 3"
"POSN4","POS NGrams n : 4"
"POSN5","POS NGrams n : 5"
"POS","POS"
"PuncN2","Punctuation NGrams n : 2"
"PuncN3","Punctuation NGrams n : 3"
"PuncN4","Punctuation NGrams n : 4"
"PuncN5","Punctuation NGrams n : 5"
"Punc","Punctuation"
"SentL","Sentence Length"
"Sents","Sentences"
"SCharN2","Sorted Character NGram n : 2"
"SCharN3","Sorted Character NGram n : 3"
"SCharN4","Sorted Character NGram n : 4"
"SCharN5","Sorted Character NGram n : 5"
"SWN2","Sorted Word NGram n : 2"
"SWN3","Sorted Word NGram n : 3"
"SWN4","Sorted Word NGram n : 4"
"SWN5","Sorted Word NGram n : 5"
"SylTran2","Syllable Transitions n : 2"
"SylWord","Syllables Per Word"
"WordL","Word Lengths"
"Words","Words"
